[
  {
    "name": "Princeton University",
    "rank": "#1",
    "tuition_fees": "$43,450",
    "total_enrollment": "8,088",
    "acceptance_rate": "7.4%",
    "average_retention_rates": "98%",
    "graduation_rate": "97%"
  },
  {
    "name": "Harvard University",
    "rank": "#2",
    "tuition_fees": "$45,278",
    "total_enrollment": "19,929",
    "acceptance_rate": "6%",
    "average_retention_rates": "97%",
    "graduation_rate": "98%"
  },
  {
    "name": "Yale University",
    "rank": "#3",
    "tuition_fees": "$47,600",
    "total_enrollment": "12,336",
    "acceptance_rate": "6.3%",
    "average_retention_rates": "99%",
    "graduation_rate": "96%"
  },
  {
    "name": "Columbia University",
    "rank": "#4Tie",
    "tuition_fees": "$51,008",
    "total_enrollment": "24,221",
    "acceptance_rate": "7%",
    "average_retention_rates": "99%",
    "graduation_rate": "96%"
  },
  {
    "name": "Stanford University",
    "rank": "#4Tie",
    "tuition_fees": "$46,320",
    "total_enrollment": "16,795",
    "acceptance_rate": "5.1%",
    "average_retention_rates": "98%",
    "graduation_rate": "95%"
  },
  {
    "name": "University of Chicago",
    "rank": "#4Tie",
    "tuition_fees": "$50,193",
    "total_enrollment": "12,558",
    "acceptance_rate": "8.8%",
    "average_retention_rates": "99%",
    "graduation_rate": "93%"
  },
  {
    "name": "Massachusetts Institute of Technology",
    "rank": "#7",
    "tuition_fees": "$46,704",
    "total_enrollment": "11,319",
    "acceptance_rate": "7.9%",
    "average_retention_rates": "98%",
    "graduation_rate": "91%"
  },
  {
    "name": "Duke University",
    "rank": "#8",
    "tuition_fees": "$49,341",
    "total_enrollment": "15,856",
    "acceptance_rate": "11.4%",
    "average_retention_rates": "97%",
    "graduation_rate": "95%"
  },
  {
    "name": "University of Pennsylvania",
    "rank": "#9",
    "tuition_fees": "$49,536",
    "total_enrollment": "21,296",
    "acceptance_rate": "10.4%",
    "average_retention_rates": "98%",
    "graduation_rate": "96%"
  },
  {
    "name": "California Institute of Technology",
    "rank": "#10Tie",
    "tuition_fees": "$45,390",
    "total_enrollment": "2,209",
    "acceptance_rate": "8.8%",
    "average_retention_rates": "97%",
    "graduation_rate": "92%"
  },
  {
    "name": "Johns Hopkins University",
    "rank": "#10Tie",
    "tuition_fees": "$48,710",
    "total_enrollment": "21,484",
    "acceptance_rate": "15%",
    "average_retention_rates": "97%",
    "graduation_rate": "94%"
  },
  {
    "name": "Dartmouth College",
    "rank": "#12Tie",
    "tuition_fees": "$49,506",
    "total_enrollment": "6,298",
    "acceptance_rate": "11.5%",
    "average_retention_rates": "98%",
    "graduation_rate": "95%"
  },
  {
    "name": "Northwestern University",
    "rank": "#12Tie",
    "tuition_fees": "$49,047",
    "total_enrollment": "20,336",
    "acceptance_rate": "13.1%",
    "average_retention_rates": "97%",
    "graduation_rate": "94%"
  },
  {
    "name": "Brown University",
    "rank": "#14",
    "tuition_fees": "$49,346",
    "total_enrollment": "9,181",
    "acceptance_rate": "8.7%",
    "average_retention_rates": "98%",
    "graduation_rate": "96%"
  },
  {
    "name": "Cornell University",
    "rank": "#15Tie",
    "tuition_fees": "$49,116",
    "total_enrollment": "21,850",
    "acceptance_rate": "14.2%",
    "average_retention_rates": "97%",
    "graduation_rate": "93%"
  },
  {
    "name": "Vanderbilt University",
    "rank": "#15Tie",
    "tuition_fees": "$43,838",
    "total_enrollment": "12,686",
    "acceptance_rate": "13.1%",
    "average_retention_rates": "97%",
    "graduation_rate": "93%"
  },
  {
    "name": "Washington University in St. Louis",
    "rank": "#15Tie",
    "tuition_fees": "$48,093",
    "total_enrollment": "14,348",
    "acceptance_rate": "17.1%",
    "average_retention_rates": "97%",
    "graduation_rate": "95%"
  },
  {
    "name": "Rice University",
    "rank": "#18Tie",
    "tuition_fees": "$42,253",
    "total_enrollment": "6,621",
    "acceptance_rate": "15.1%",
    "average_retention_rates": "97%",
    "graduation_rate": "93%"
  },
  {
    "name": "University of Notre Dame",
    "rank": "#18Tie",
    "tuition_fees": "$47,929",
    "total_enrollment": "12,179",
    "acceptance_rate": "21.1%",
    "average_retention_rates": "98%",
    "graduation_rate": "96%"
  },
  {
    "name": "University of California—​Berkeley",
    "rank": "#20",
    "tuition_fees": "in-state: $13,432, out-of-state: $38,140",
    "total_enrollment": "37,581",
    "acceptance_rate": "16%",
    "average_retention_rates": "97%",
    "graduation_rate": "91%"
  },
  {
    "name": "Emory University",
    "rank": "#21Tie",
    "tuition_fees": "$46,314",
    "total_enrollment": "14,769",
    "acceptance_rate": "26.8%",
    "average_retention_rates": "95%",
    "graduation_rate": "91%"
  },
  {
    "name": "Georgetown University",
    "rank": "#21Tie",
    "tuition_fees": "$48,611",
    "total_enrollment": "17,858",
    "acceptance_rate": "17.4%",
    "average_retention_rates": "96%",
    "graduation_rate": "95%"
  },
  {
    "name": "Carnegie Mellon University",
    "rank": "#23Tie",
    "tuition_fees": "$50,410",
    "total_enrollment": "13,285",
    "acceptance_rate": "24.6%",
    "average_retention_rates": "95%",
    "graduation_rate": "88%"
  },
  {
    "name": "University of California—​Los Angeles",
    "rank": "#23Tie",
    "tuition_fees": "in-state: $12,753, out-of-state: $35,631",
    "total_enrollment": "43,239",
    "acceptance_rate": "18.6%",
    "average_retention_rates": "97%",
    "graduation_rate": "91%"
  },
  {
    "name": "University of Southern California",
    "rank": "#23Tie",
    "tuition_fees": "$50,210",
    "total_enrollment": "42,469",
    "acceptance_rate": "18%",
    "average_retention_rates": "97%",
    "graduation_rate": "91%"
  },
  {
    "name": "University of Virginia",
    "rank": "#26",
    "tuition_fees": "in-state: $14,526, out-of-state: $43,822",
    "total_enrollment": "23,732",
    "acceptance_rate": "29%",
    "average_retention_rates": "97%",
    "graduation_rate": "94%"
  },
  {
    "name": "Tufts University",
    "rank": "#27Tie",
    "tuition_fees": "$50,604",
    "total_enrollment": "10,907",
    "acceptance_rate": "17.3%",
    "average_retention_rates": "96%",
    "graduation_rate": "92%"
  },
  {
    "name": "Wake Forest University",
    "rank": "#27Tie",
    "tuition_fees": "$47,682",
    "total_enrollment": "7,788",
    "acceptance_rate": "34.4%",
    "average_retention_rates": "94%",
    "graduation_rate": "88%"
  },
  {
    "name": "University of Michigan—​Ann Arbor",
    "rank": "#29",
    "tuition_fees": "in-state: $14,336, out-of-state: $43,377",
    "total_enrollment": "43,625",
    "acceptance_rate": "32.2%",
    "average_retention_rates": "97%",
    "graduation_rate": "91%"
  },
  {
    "name": "Boston College",
    "rank": "#30Tie",
    "tuition_fees": "$49,324",
    "total_enrollment": "13,575",
    "acceptance_rate": "33.9%",
    "average_retention_rates": "95%",
    "graduation_rate": "91%"
  },
  {
    "name": "University of North Carolina—​Chapel Hill",
    "rank": "#30Tie",
    "tuition_fees": "in-state: $8,562, out-of-state: $33,644",
    "total_enrollment": "29,135",
    "acceptance_rate": "28.5%",
    "average_retention_rates": "97%",
    "graduation_rate": "90%"
  },
  {
    "name": "New York University",
    "rank": "#32",
    "tuition_fees": "$46,170",
    "total_enrollment": "49,274",
    "acceptance_rate": "35.5%",
    "average_retention_rates": "92%",
    "graduation_rate": "82%"
  },
  {
    "name": "University of Rochester",
    "rank": "#33",
    "tuition_fees": "$48,290",
    "total_enrollment": "11,060",
    "acceptance_rate": "36.4%",
    "average_retention_rates": "96%",
    "graduation_rate": "84%"
  },
  {
    "name": "Brandeis University",
    "rank": "#34Tie",
    "tuition_fees": "$49,598",
    "total_enrollment": "5,945",
    "acceptance_rate": "35.2%",
    "average_retention_rates": "94%",
    "graduation_rate": "91%"
  },
  {
    "name": "College of William and Mary",
    "rank": "#34Tie",
    "tuition_fees": "in-state: $16,919, out-of-state: $40,516",
    "total_enrollment": "8,437",
    "acceptance_rate": "33%",
    "average_retention_rates": "96%",
    "graduation_rate": "90%"
  },
  {
    "name": "Georgia Institute of Technology",
    "rank": "#36",
    "tuition_fees": "in-state: $12,204, out-of-state: $32,396",
    "total_enrollment": "23,109",
    "acceptance_rate": "33.4%",
    "average_retention_rates": "96%",
    "graduation_rate": "82%"
  },
  {
    "name": "Case Western Reserve University",
    "rank": "#37Tie",
    "tuition_fees": "$44,560",
    "total_enrollment": "10,771",
    "acceptance_rate": "38.3%",
    "average_retention_rates": "93%",
    "graduation_rate": "81%"
  },
  {
    "name": "University of California—​Santa Barbara",
    "rank": "#37Tie",
    "tuition_fees": "in-state: $13,865, out-of-state: $38,573",
    "total_enrollment": "23,051",
    "acceptance_rate": "36.3%",
    "average_retention_rates": "92%",
    "graduation_rate": "87%"
  },
  {
    "name": "University of California—​Irvine",
    "rank": "#39Tie",
    "tuition_fees": "in-state: $14,577, out-of-state: $37,455",
    "total_enrollment": "30,051",
    "acceptance_rate": "37.4%",
    "average_retention_rates": "93%",
    "graduation_rate": "87%"
  },
  {
    "name": "University of California—​San Diego",
    "rank": "#39Tie",
    "tuition_fees": "in-state: $14,042, out-of-state: $38,066",
    "total_enrollment": "29,909",
    "acceptance_rate": "33.5%",
    "average_retention_rates": "95%",
    "graduation_rate": "86%"
  },
  {
    "name": "Boston University",
    "rank": "#41Tie",
    "tuition_fees": "$48,436",
    "total_enrollment": "32,112",
    "acceptance_rate": "34.5%",
    "average_retention_rates": "93%",
    "graduation_rate": "85%"
  },
  {
    "name": "Rensselaer Polytechnic Institute",
    "rank": "#41Tie",
    "tuition_fees": "$49,341",
    "total_enrollment": "7,028",
    "acceptance_rate": "37.5%",
    "average_retention_rates": "93%",
    "graduation_rate": "82%"
  },
  {
    "name": "Tulane University",
    "rank": "#41Tie",
    "tuition_fees": "$49,638",
    "total_enrollment": "13,531",
    "acceptance_rate": "27.9%",
    "average_retention_rates": "90%",
    "graduation_rate": "83%"
  },
  {
    "name": "University of California—​Davis",
    "rank": "#41Tie",
    "tuition_fees": "in-state: $13,951, out-of-state: $38,659",
    "total_enrollment": "34,508",
    "acceptance_rate": "40.6%",
    "average_retention_rates": "93%",
    "graduation_rate": "87%"
  },
  {
    "name": "University of Illinois—​Urbana-​Champaign",
    "rank": "#41Tie",
    "tuition_fees": "in-state: $15,626, out-of-state: $30,786",
    "total_enrollment": "45,140",
    "acceptance_rate": "59%",
    "average_retention_rates": "94%",
    "graduation_rate": "84%"
  },
  {
    "name": "University of Wisconsin—​Madison",
    "rank": "#41Tie",
    "tuition_fees": "in-state: $10,415, out-of-state: $29,665",
    "total_enrollment": "43,193",
    "acceptance_rate": "49.8%",
    "average_retention_rates": "95%",
    "graduation_rate": "85%"
  },
  {
    "name": "Lehigh University",
    "rank": "#47Tie",
    "tuition_fees": "$46,230",
    "total_enrollment": "7,119",
    "acceptance_rate": "34.3%",
    "average_retention_rates": "95%",
    "graduation_rate": "87%"
  },
  {
    "name": "Northeastern University",
    "rank": "#47Tie",
    "tuition_fees": "$45,530",
    "total_enrollment": "19,798",
    "acceptance_rate": "32.2%",
    "average_retention_rates": "96%",
    "graduation_rate": "82%"
  },
  {
    "name": "Pennsylvania State University—​University Park",
    "rank": "#47Tie",
    "tuition_fees": "in-state: $17,514, out-of-state: $31,346",
    "total_enrollment": "47,040",
    "acceptance_rate": "50.3%",
    "average_retention_rates": "92%",
    "graduation_rate": "86%"
  },
  {
    "name": "University of Florida",
    "rank": "#47Tie",
    "tuition_fees": "in-state: $6,313, out-of-state: $28,591",
    "total_enrollment": "50,350",
    "acceptance_rate": "47.1%",
    "average_retention_rates": "96%",
    "graduation_rate": "88%"
  },
  {
    "name": "University of Miami",
    "rank": "#51",
    "tuition_fees": "$45,724",
    "total_enrollment": "16,774",
    "acceptance_rate": "38.2%",
    "average_retention_rates": "92%",
    "graduation_rate": "81%"
  },
  {
    "name": "Ohio State University—​Columbus",
    "rank": "#52Tie",
    "tuition_fees": "in-state: $10,037, out-of-state: $26,537",
    "total_enrollment": "58,322",
    "acceptance_rate": "53%",
    "average_retention_rates": "93%",
    "graduation_rate": "83%"
  },
  {
    "name": "Pepperdine University",
    "rank": "#52Tie",
    "tuition_fees": "$48,342",
    "total_enrollment": "7,417",
    "acceptance_rate": "35.5%",
    "average_retention_rates": "92%",
    "graduation_rate": "84%"
  },
  {
    "name": "University of Texas—​Austin",
    "rank": "#52Tie",
    "tuition_fees": "in-state: $9,830, out-of-state: $34,836",
    "total_enrollment": "51,313",
    "acceptance_rate": "39.7%",
    "average_retention_rates": "94%",
    "graduation_rate": "81%"
  },
  {
    "name": "University of Washington",
    "rank": "#52Tie",
    "tuition_fees": "in-state: $12,394, out-of-state: $33,513",
    "total_enrollment": "44,784",
    "acceptance_rate": "55.2%",
    "average_retention_rates": "93%",
    "graduation_rate": "84%"
  },
  {
    "name": "Yeshiva University",
    "rank": "#52Tie",
    "tuition_fees": "$39,530",
    "total_enrollment": "6,438",
    "acceptance_rate": "81.8%",
    "average_retention_rates": "91%",
    "graduation_rate": "89%"
  },
  {
    "name": "George Washington University",
    "rank": "#57Tie",
    "tuition_fees": "$50,435",
    "total_enrollment": "25,613",
    "acceptance_rate": "43.8%",
    "average_retention_rates": "93%",
    "graduation_rate": "79%"
  },
  {
    "name": "University of Connecticut",
    "rank": "#57Tie",
    "tuition_fees": "in-state: $13,364, out-of-state: $34,908",
    "total_enrollment": "26,541",
    "acceptance_rate": "50%",
    "average_retention_rates": "93%",
    "graduation_rate": "81%"
  },
  {
    "name": "University of Maryland—​College Park",
    "rank": "#57Tie",
    "tuition_fees": "in-state: $9,996, out-of-state: $31,144",
    "total_enrollment": "37,610",
    "acceptance_rate": "47.8%",
    "average_retention_rates": "95%",
    "graduation_rate": "85%"
  },
  {
    "name": "Worcester Polytechnic Institute",
    "rank": "#57Tie",
    "tuition_fees": "$45,590",
    "total_enrollment": "6,381",
    "acceptance_rate": "43.8%",
    "average_retention_rates": "96%",
    "graduation_rate": "85%"
  },
  {
    "name": "Clemson University",
    "rank": "#61Tie",
    "tuition_fees": "in-state: $14,240, out-of-state: $32,796",
    "total_enrollment": "21,857",
    "acceptance_rate": "52.8%",
    "average_retention_rates": "91%",
    "graduation_rate": "82%"
  },
  {
    "name": "Purdue University—​West Lafayette",
    "rank": "#61Tie",
    "tuition_fees": "in-state: $10,002, out-of-state: $28,804",
    "total_enrollment": "38,770",
    "acceptance_rate": "59.2%",
    "average_retention_rates": "92%",
    "graduation_rate": "74%"
  },
  {
    "name": "Southern Methodist University",
    "rank": "#61Tie",
    "tuition_fees": "$48,190",
    "total_enrollment": "11,272",
    "acceptance_rate": "52.4%",
    "average_retention_rates": "90%",
    "graduation_rate": "77%"
  },
  {
    "name": "Syracuse University",
    "rank": "#61Tie",
    "tuition_fees": "$43,318",
    "total_enrollment": "21,492",
    "acceptance_rate": "53.2%",
    "average_retention_rates": "92%",
    "graduation_rate": "80%"
  },
  {
    "name": "University of Georgia",
    "rank": "#61Tie",
    "tuition_fees": "in-state: $11,622, out-of-state: $29,832",
    "total_enrollment": "35,197",
    "acceptance_rate": "55.8%",
    "average_retention_rates": "94%",
    "graduation_rate": "85%"
  },
  {
    "name": "Brigham Young University—​Provo",
    "rank": "#66Tie",
    "tuition_fees": "$5,150",
    "total_enrollment": "30,484",
    "acceptance_rate": "47%",
    "average_retention_rates": "88%",
    "graduation_rate": "79%"
  },
  {
    "name": "Fordham University",
    "rank": "#66Tie",
    "tuition_fees": "$45,623",
    "total_enrollment": "15,231",
    "acceptance_rate": "48.1%",
    "average_retention_rates": "89%",
    "graduation_rate": "80%"
  },
  {
    "name": "University of Pittsburgh",
    "rank": "#66Tie",
    "tuition_fees": "in-state: $18,192, out-of-state: $28,958",
    "total_enrollment": "28,617",
    "acceptance_rate": "53.1%",
    "average_retention_rates": "92%",
    "graduation_rate": "82%"
  },
  {
    "name": "University of Minnesota—​Twin Cities",
    "rank": "#69",
    "tuition_fees": "in-state: $13,560, out-of-state: $20,810",
    "total_enrollment": "51,147",
    "acceptance_rate": "45.4%",
    "average_retention_rates": "91%",
    "graduation_rate": "78%"
  },
  {
    "name": "Texas A&M University—​College Station",
    "rank": "#70Tie",
    "tuition_fees": "in-state: $9,180, out-of-state: $26,356",
    "total_enrollment": "61,263",
    "acceptance_rate": "71%",
    "average_retention_rates": "91%",
    "graduation_rate": "79%"
  },
  {
    "name": "Virginia Tech",
    "rank": "#70Tie",
    "tuition_fees": "in-state: $12,017, out-of-state: $27,444",
    "total_enrollment": "31,224",
    "acceptance_rate": "72.6%",
    "average_retention_rates": "92%",
    "graduation_rate": "83%"
  },
  {
    "name": "American University",
    "rank": "#72Tie",
    "tuition_fees": "$43,103",
    "total_enrollment": "13,061",
    "acceptance_rate": "45.8%",
    "average_retention_rates": "89%",
    "graduation_rate": "82%"
  },
  {
    "name": "Baylor University",
    "rank": "#72Tie",
    "tuition_fees": "$40,198",
    "total_enrollment": "16,263",
    "acceptance_rate": "55.4%",
    "average_retention_rates": "87%",
    "graduation_rate": "72%"
  },
  {
    "name": "Rutgers, The State University of New Jersey—​New Brunswick",
    "rank": "#72Tie",
    "tuition_fees": "in-state: $14,131, out-of-state: $29,521",
    "total_enrollment": "48,378",
    "acceptance_rate": "60.5%",
    "average_retention_rates": "92%",
    "graduation_rate": "80%"
  },
  {
    "name": "Clark University",
    "rank": "#75Tie",
    "tuition_fees": "$41,940",
    "total_enrollment": "3,423",
    "acceptance_rate": "54%",
    "average_retention_rates": "89%",
    "graduation_rate": "78%"
  },
  {
    "name": "Colorado School of Mines",
    "rank": "#75Tie",
    "tuition_fees": "in-state: $17,383, out-of-state: $34,828",
    "total_enrollment": "5,795",
    "acceptance_rate": "36.5%",
    "average_retention_rates": "91%",
    "graduation_rate": "76%"
  },
  {
    "name": "Indiana University—​Bloomington",
    "rank": "#75Tie",
    "tuition_fees": "in-state: $10,388, out-of-state: $33,741",
    "total_enrollment": "46,416",
    "acceptance_rate": "76.1%",
    "average_retention_rates": "89%",
    "graduation_rate": "78%"
  },
  {
    "name": "Michigan State University",
    "rank": "#75Tie",
    "tuition_fees": "in-state: $13,560, out-of-state: $36,360",
    "total_enrollment": "50,085",
    "acceptance_rate": "66.1%",
    "average_retention_rates": "91%",
    "graduation_rate": "79%"
  },
  {
    "name": "Stevens Institute of Technology",
    "rank": "#75Tie",
    "tuition_fees": "$47,190",
    "total_enrollment": "6,125",
    "acceptance_rate": "43.8%",
    "average_retention_rates": "95%",
    "graduation_rate": "82%"
  },
  {
    "name": "University of Delaware",
    "rank": "#75Tie",
    "tuition_fees": "in-state: $12,342, out-of-state: $30,692",
    "total_enrollment": "21,870",
    "acceptance_rate": "65.9%",
    "average_retention_rates": "92%",
    "graduation_rate": "81%"
  },
  {
    "name": "University of Massachusetts—​Amherst",
    "rank": "#75Tie",
    "tuition_fees": "in-state: $14,356, out-of-state: $30,689",
    "total_enrollment": "28,635",
    "acceptance_rate": "61.3%",
    "average_retention_rates": "89%",
    "graduation_rate": "76%"
  },
  {
    "name": "Miami University—​Oxford",
    "rank": "#82Tie",
    "tuition_fees": "in-state: $14,287, out-of-state: $30,987",
    "total_enrollment": "18,620",
    "acceptance_rate": "65.8%",
    "average_retention_rates": "90%",
    "graduation_rate": "79%"
  },
  {
    "name": "Texas Christian University",
    "rank": "#82Tie",
    "tuition_fees": "$40,720",
    "total_enrollment": "10,033",
    "acceptance_rate": "48.9%",
    "average_retention_rates": "89%",
    "graduation_rate": "76%"
  },
  {
    "name": "University of California—​Santa Cruz",
    "rank": "#82Tie",
    "tuition_fees": "in-state: $13,481, out-of-state: $38,189",
    "total_enrollment": "17,866",
    "acceptance_rate": "57%",
    "average_retention_rates": "90%",
    "graduation_rate": "80%"
  },
  {
    "name": "University of Iowa",
    "rank": "#82Tie",
    "tuition_fees": "in-state: $8,104, out-of-state: $27,890",
    "total_enrollment": "31,387",
    "acceptance_rate": "81%",
    "average_retention_rates": "86%",
    "graduation_rate": "70%"
  },
  {
    "name": "Marquette University",
    "rank": "#86Tie",
    "tuition_fees": "$37,170",
    "total_enrollment": "11,745",
    "acceptance_rate": "66.7%",
    "average_retention_rates": "90%",
    "graduation_rate": "79%"
  },
  {
    "name": "University of Denver",
    "rank": "#86Tie",
    "tuition_fees": "$44,178",
    "total_enrollment": "11,809",
    "acceptance_rate": "76.5%",
    "average_retention_rates": "87%",
    "graduation_rate": "76%"
  },
  {
    "name": "University of Tulsa",
    "rank": "#86Tie",
    "tuition_fees": "$36,962",
    "total_enrollment": "4,682",
    "acceptance_rate": "40.3%",
    "average_retention_rates": "88%",
    "graduation_rate": "70%"
  },
  {
    "name": "Binghamton University—​SUNY",
    "rank": "#89Tie",
    "tuition_fees": "in-state: $9,044, out-of-state: $22,164",
    "total_enrollment": "16,695",
    "acceptance_rate": "44.1%",
    "average_retention_rates": "91%",
    "graduation_rate": "81%"
  },
  {
    "name": "North Carolina State University—​Raleigh",
    "rank": "#89Tie",
    "tuition_fees": "in-state: $8,581, out-of-state: $24,932",
    "total_enrollment": "33,989",
    "acceptance_rate": "51.4%",
    "average_retention_rates": "92%",
    "graduation_rate": "76%"
  },
  {
    "name": "Stony Brook University—​SUNY",
    "rank": "#89Tie",
    "tuition_fees": "in-state: $8,855, out-of-state: $23,935",
    "total_enrollment": "24,607",
    "acceptance_rate": "41.3%",
    "average_retention_rates": "90%",
    "graduation_rate": "69%"
  },
  {
    "name": "SUNY College of Environmental Science and Forestry",
    "rank": "#89Tie",
    "tuition_fees": "in-state: $7,770, out-of-state: $17,620",
    "total_enrollment": "2,457",
    "acceptance_rate": "51.1%",
    "average_retention_rates": "85%",
    "graduation_rate": "68%"
  },
  {
    "name": "University of Colorado—​Boulder",
    "rank": "#89Tie",
    "tuition_fees": "in-state: $11,091, out-of-state: $34,125",
    "total_enrollment": "32,080",
    "acceptance_rate": "84.2%",
    "average_retention_rates": "84%",
    "graduation_rate": "70%"
  },
  {
    "name": "University of San Diego",
    "rank": "#89Tie",
    "tuition_fees": "$44,586",
    "total_enrollment": "8,349",
    "acceptance_rate": "46.3%",
    "average_retention_rates": "89%",
    "graduation_rate": "77%"
  },
  {
    "name": "University of Vermont",
    "rank": "#89Tie",
    "tuition_fees": "in-state: $16,226, out-of-state: $37,874",
    "total_enrollment": "12,856",
    "acceptance_rate": "73.4%",
    "average_retention_rates": "86%",
    "graduation_rate": "76%"
  },
  {
    "name": "Florida State University",
    "rank": "#96Tie",
    "tuition_fees": "in-state: $6,507, out-of-state: $21,673",
    "total_enrollment": "41,226",
    "acceptance_rate": "55.4%",
    "average_retention_rates": "92%",
    "graduation_rate": "79%"
  },
  {
    "name": "Saint Louis University",
    "rank": "#96Tie",
    "tuition_fees": "$39,226",
    "total_enrollment": "13,287",
    "acceptance_rate": "60.3%",
    "average_retention_rates": "88%",
    "graduation_rate": "72%"
  },
  {
    "name": "University of Alabama",
    "rank": "#96Tie",
    "tuition_fees": "in-state: $10,170, out-of-state: $25,950",
    "total_enrollment": "36,047",
    "acceptance_rate": "51.1%",
    "average_retention_rates": "87%",
    "graduation_rate": "66%"
  },
  {
    "name": "Drexel University",
    "rank": "#99Tie",
    "tuition_fees": "$48,791",
    "total_enrollment": "23,890",
    "acceptance_rate": "76%",
    "average_retention_rates": "85%",
    "graduation_rate": "67%"
  },
  {
    "name": "Loyola University Chicago",
    "rank": "#99Tie",
    "tuition_fees": "$39,179",
    "total_enrollment": "15,902",
    "acceptance_rate": "63.3%",
    "average_retention_rates": "86%",
    "graduation_rate": "73%"
  },
  {
    "name": "University at Buffalo—​SUNY",
    "rank": "#99Tie",
    "tuition_fees": "in-state: $8,870, out-of-state: $22,290",
    "total_enrollment": "29,944",
    "acceptance_rate": "57.8%",
    "average_retention_rates": "88%",
    "graduation_rate": "72%"
  },
  {
    "name": "Auburn University",
    "rank": "#102",
    "tuition_fees": "in-state: $10,424, out-of-state: $28,040",
    "total_enrollment": "25,912",
    "acceptance_rate": "83.5%",
    "average_retention_rates": "90%",
    "graduation_rate": "71%"
  },
  {
    "name": "University of Missouri",
    "rank": "#103Tie",
    "tuition_fees": "in-state: $9,509, out-of-state: $25,166",
    "total_enrollment": "35,441",
    "acceptance_rate": "77.7%",
    "average_retention_rates": "85%",
    "graduation_rate": "69%"
  },
  {
    "name": "University of Nebraska—​Lincoln",
    "rank": "#103Tie",
    "tuition_fees": "in-state: $8,382, out-of-state: $22,790",
    "total_enrollment": "25,006",
    "acceptance_rate": "69.9%",
    "average_retention_rates": "84%",
    "graduation_rate": "67%"
  },
  {
    "name": "University of New Hampshire",
    "rank": "#103Tie",
    "tuition_fees": "in-state: $16,552, out-of-state: $29,532",
    "total_enrollment": "15,169",
    "acceptance_rate": "80%",
    "average_retention_rates": "86%",
    "graduation_rate": "77%"
  },
  {
    "name": "University of Oregon",
    "rank": "#103Tie",
    "tuition_fees": "in-state: $9,918, out-of-state: $30,888",
    "total_enrollment": "24,096",
    "acceptance_rate": "74.9%",
    "average_retention_rates": "86%",
    "graduation_rate": "69%"
  },
  {
    "name": "University of Tennessee",
    "rank": "#103Tie",
    "tuition_fees": "in-state: $11,948, out-of-state: $30,138",
    "total_enrollment": "30,386",
    "acceptance_rate": "74.8%",
    "average_retention_rates": "86%",
    "graduation_rate": "69%"
  },
  {
    "name": "Illinois Institute of Technology",
    "rank": "#108Tie",
    "tuition_fees": "$43,680",
    "total_enrollment": "7,898",
    "acceptance_rate": "50.6%",
    "average_retention_rates": "93%",
    "graduation_rate": "65%"
  },
  {
    "name": "Iowa State University",
    "rank": "#108Tie",
    "tuition_fees": "in-state: $7,736, out-of-state: $20,856",
    "total_enrollment": "34,435",
    "acceptance_rate": "86.9%",
    "average_retention_rates": "87%",
    "graduation_rate": "69%"
  },
  {
    "name": "University of Dayton",
    "rank": "#108Tie",
    "tuition_fees": "$39,090",
    "total_enrollment": "11,343",
    "acceptance_rate": "59%",
    "average_retention_rates": "89%",
    "graduation_rate": "76%"
  },
  {
    "name": "University of Oklahoma",
    "rank": "#108Tie",
    "tuition_fees": "in-state: $7,695, out-of-state: $20,469",
    "total_enrollment": "30,628",
    "acceptance_rate": "81.3%",
    "average_retention_rates": "85%",
    "graduation_rate": "67%"
  },
  {
    "name": "University of San Francisco",
    "rank": "#108Tie",
    "tuition_fees": "$42,634",
    "total_enrollment": "10,701",
    "acceptance_rate": "60.1%",
    "average_retention_rates": "87%",
    "graduation_rate": "70%"
  },
  {
    "name": "University of South Carolina",
    "rank": "#108Tie",
    "tuition_fees": "in-state: $11,158, out-of-state: $29,440",
    "total_enrollment": "32,971",
    "acceptance_rate": "65.2%",
    "average_retention_rates": "88%",
    "graduation_rate": "73%"
  },
  {
    "name": "University of the Pacific",
    "rank": "#108Tie",
    "tuition_fees": "$42,934",
    "total_enrollment": "6,304",
    "acceptance_rate": "54.9%",
    "average_retention_rates": "85%",
    "graduation_rate": "67%"
  },
  {
    "name": "Clarkson University",
    "rank": "#115Tie",
    "tuition_fees": "$44,630",
    "total_enrollment": "3,873",
    "acceptance_rate": "62.1%",
    "average_retention_rates": "88%",
    "graduation_rate": "73%"
  },
  {
    "name": "Duquesne University",
    "rank": "#115Tie",
    "tuition_fees": "$33,778",
    "total_enrollment": "9,648",
    "acceptance_rate": "73.1%",
    "average_retention_rates": "89%",
    "graduation_rate": "76%"
  },
  {
    "name": "Temple University",
    "rank": "#115Tie",
    "tuition_fees": "in-state: $15,096, out-of-state: $25,122",
    "total_enrollment": "37,485",
    "acceptance_rate": "61.7%",
    "average_retention_rates": "88%",
    "graduation_rate": "69%"
  },
  {
    "name": "University of Kansas",
    "rank": "#115Tie",
    "tuition_fees": "in-state: $10,448, out-of-state: $25,731",
    "total_enrollment": "27,180",
    "acceptance_rate": "91.4%",
    "average_retention_rates": "80%",
    "graduation_rate": "60%"
  },
  {
    "name": "University of St. Thomas",
    "rank": "#115Tie",
    "tuition_fees": "$36,475",
    "total_enrollment": "10,229",
    "acceptance_rate": "86.6%",
    "average_retention_rates": "87%",
    "graduation_rate": "72%"
  },
  {
    "name": "University of Utah",
    "rank": "#115Tie",
    "tuition_fees": "in-state: $8,239, out-of-state: $26,177",
    "total_enrollment": "31,515",
    "acceptance_rate": "81.4%",
    "average_retention_rates": "88%",
    "graduation_rate": "62%"
  },
  {
    "name": "University of Arizona",
    "rank": "#121Tie",
    "tuition_fees": "in-state: $10,872, out-of-state: $30,025",
    "total_enrollment": "42,236",
    "acceptance_rate": "74.6%",
    "average_retention_rates": "80%",
    "graduation_rate": "60%"
  },
  {
    "name": "University of California—​Riverside",
    "rank": "#121Tie",
    "tuition_fees": "in-state: $14,050, out-of-state: $40,973",
    "total_enrollment": "21,587",
    "acceptance_rate": "58.3%",
    "average_retention_rates": "89%",
    "graduation_rate": "69%"
  },
  {
    "name": "The Catholic University of America",
    "rank": "#123Tie",
    "tuition_fees": "$40,932",
    "total_enrollment": "6,699",
    "acceptance_rate": "74.7%",
    "average_retention_rates": "82%",
    "graduation_rate": "67%"
  },
  {
    "name": "DePaul University",
    "rank": "#123Tie",
    "tuition_fees": "$36,361",
    "total_enrollment": "23,799",
    "acceptance_rate": "69.9%",
    "average_retention_rates": "86%",
    "graduation_rate": "71%"
  },
  {
    "name": "Michigan Technological University",
    "rank": "#123Tie",
    "tuition_fees": "in-state: $14,040, out-of-state: $29,520",
    "total_enrollment": "7,104",
    "acceptance_rate": "75.5%",
    "average_retention_rates": "83%",
    "graduation_rate": "64%"
  },
  {
    "name": "Seton Hall University",
    "rank": "#123Tie",
    "tuition_fees": "$36,926",
    "total_enrollment": "9,627",
    "acceptance_rate": "75.5%",
    "average_retention_rates": "84%",
    "graduation_rate": "66%"
  },
  {
    "name": "Colorado State University",
    "rank": "#127Tie",
    "tuition_fees": "in-state: $10,590, out-of-state: $27,258",
    "total_enrollment": "31,449",
    "acceptance_rate": "80.5%",
    "average_retention_rates": "85%",
    "graduation_rate": "65%"
  },
  {
    "name": "New School",
    "rank": "#127Tie",
    "tuition_fees": "$42,977",
    "total_enrollment": "10,185",
    "acceptance_rate": "65.9%",
    "average_retention_rates": "83%",
    "graduation_rate": "66%"
  },
  {
    "name": "Arizona State University—​Tempe",
    "rank": "#129Tie",
    "tuition_fees": "in-state: $10,127, out-of-state: $24,503",
    "total_enrollment": "50,358",
    "acceptance_rate": "84.3%",
    "average_retention_rates": "84%",
    "graduation_rate": "63%"
  },
  {
    "name": "Louisiana State University—​Baton Rouge",
    "rank": "#129Tie",
    "tuition_fees": "in-state: $8,750, out-of-state: $26,467",
    "total_enrollment": "31,044",
    "acceptance_rate": "76.6%",
    "average_retention_rates": "84%",
    "graduation_rate": "67%"
  },
  {
    "name": "University at Albany—​SUNY",
    "rank": "#129Tie",
    "tuition_fees": "in-state: $8,996, out-of-state: $22,116",
    "total_enrollment": "17,273",
    "acceptance_rate": "55.8%",
    "average_retention_rates": "83%",
    "graduation_rate": "66%"
  },
  {
    "name": "University of Arkansas",
    "rank": "#129Tie",
    "tuition_fees": "in-state: $8,522, out-of-state: $23,320",
    "total_enrollment": "26,237",
    "acceptance_rate": "62%",
    "average_retention_rates": "82%",
    "graduation_rate": "62%"
  },
  {
    "name": "University of Illinois—​Chicago",
    "rank": "#129Tie",
    "tuition_fees": "in-state: $13,670, out-of-state: $26,526",
    "total_enrollment": "27,563",
    "acceptance_rate": "72.7%",
    "average_retention_rates": "79%",
    "graduation_rate": "60%"
  },
  {
    "name": "University of Kentucky",
    "rank": "#129Tie",
    "tuition_fees": "in-state: $10,936, out-of-state: $24,268",
    "total_enrollment": "29,203",
    "acceptance_rate": "72.2%",
    "average_retention_rates": "82%",
    "graduation_rate": "60%"
  },
  {
    "name": "George Mason University",
    "rank": "#135Tie",
    "tuition_fees": "in-state: $10,952, out-of-state: $31,598",
    "total_enrollment": "33,723",
    "acceptance_rate": "66.7%",
    "average_retention_rates": "87%",
    "graduation_rate": "67%"
  },
  {
    "name": "Hofstra University",
    "rank": "#135Tie",
    "tuition_fees": "$40,460",
    "total_enrollment": "10,953",
    "acceptance_rate": "61.6%",
    "average_retention_rates": "79%",
    "graduation_rate": "60%"
  },
  {
    "name": "Howard University",
    "rank": "#135Tie",
    "tuition_fees": "$23,970",
    "total_enrollment": "10,265",
    "acceptance_rate": "48.4%",
    "average_retention_rates": "82%",
    "graduation_rate": "60%"
  },
  {
    "name": "Ohio University",
    "rank": "#135Tie",
    "tuition_fees": "in-state: $11,548, out-of-state: $20,512",
    "total_enrollment": "29,217",
    "acceptance_rate": "74.3%",
    "average_retention_rates": "80%",
    "graduation_rate": "67%"
  },
  {
    "name": "Oregon State University",
    "rank": "#135Tie",
    "tuition_fees": "in-state: $10,107, out-of-state: $28,767",
    "total_enrollment": "28,886",
    "acceptance_rate": "77.8%",
    "average_retention_rates": "83%",
    "graduation_rate": "63%"
  },
  {
    "name": "New Jersey Institute of Technology",
    "rank": "#140Tie",
    "tuition_fees": "in-state: $15,648, out-of-state: $29,288",
    "total_enrollment": "10,646",
    "acceptance_rate": "63.5%",
    "average_retention_rates": "84%",
    "graduation_rate": "59%"
  },
  {
    "name": "Rutgers, The State University of New Jersey—​Newark",
    "rank": "#140Tie",
    "tuition_fees": "in-state: $13,597, out-of-state: $28,987",
    "total_enrollment": "11,314",
    "acceptance_rate": "62.8%",
    "average_retention_rates": "85%",
    "graduation_rate": "66%"
  },
  {
    "name": "University of Cincinnati",
    "rank": "#140Tie",
    "tuition_fees": "in-state: $11,000, out-of-state: $26,334",
    "total_enrollment": "35,421",
    "acceptance_rate": "76%",
    "average_retention_rates": "86%",
    "graduation_rate": "65%"
  },
  {
    "name": "University of Mississippi",
    "rank": "#140Tie",
    "tuition_fees": "in-state: $7,444, out-of-state: $20,674",
    "total_enrollment": "22,503",
    "acceptance_rate": "81.2%",
    "average_retention_rates": "83%",
    "graduation_rate": "61%"
  },
  {
    "name": "University of Texas—​Dallas",
    "rank": "#140Tie",
    "tuition_fees": "in-state: $11,806, out-of-state: $31,328",
    "total_enrollment": "23,095",
    "acceptance_rate": "61.9%",
    "average_retention_rates": "86%",
    "graduation_rate": "71%"
  },
  {
    "name": "Washington State University",
    "rank": "#140Tie",
    "tuition_fees": "in-state: $12,485, out-of-state: $25,567",
    "total_enrollment": "28,686",
    "acceptance_rate": "80.3%",
    "average_retention_rates": "82%",
    "graduation_rate": "67%"
  },
  {
    "name": "Kansas State University",
    "rank": "#146Tie",
    "tuition_fees": "in-state: $9,034, out-of-state: $22,624",
    "total_enrollment": "24,766",
    "acceptance_rate": "94.9%",
    "average_retention_rates": "82%",
    "graduation_rate": "59%"
  },
  {
    "name": "Missouri University of Science & Technology",
    "rank": "#146Tie",
    "tuition_fees": "in-state: $9,628, out-of-state: $26,152",
    "total_enrollment": "8,642",
    "acceptance_rate": "85.9%",
    "average_retention_rates": "84%",
    "graduation_rate": "63%"
  },
  {
    "name": "St. John Fisher College",
    "rank": "#146Tie",
    "tuition_fees": "$30,690",
    "total_enrollment": "3,856",
    "acceptance_rate": "67.9%",
    "average_retention_rates": "85%",
    "graduation_rate": "70%"
  },
  {
    "name": "Illinois State University",
    "rank": "#149Tie",
    "tuition_fees": "in-state: $12,830, out-of-state: $20,420",
    "total_enrollment": "20,615",
    "acceptance_rate": "73.9%",
    "average_retention_rates": "83%",
    "graduation_rate": "72%"
  },
  {
    "name": "Oklahoma State University",
    "rank": "#149Tie",
    "tuition_fees": "in-state: $7,442, out-of-state: $20,027",
    "total_enrollment": "25,854",
    "acceptance_rate": "75%",
    "average_retention_rates": "80%",
    "graduation_rate": "61%"
  },
  {
    "name": "San Diego State University",
    "rank": "#149Tie",
    "tuition_fees": "in-state: $6,976, out-of-state: $18,136",
    "total_enrollment": "33,483",
    "acceptance_rate": "34.5%",
    "average_retention_rates": "89%",
    "graduation_rate": "67%"
  },
  {
    "name": "University of Alabama—​Birmingham",
    "rank": "#149Tie",
    "tuition_fees": "in-state: $9,280, out-of-state: $21,220",
    "total_enrollment": "18,698",
    "acceptance_rate": "85.7%",
    "average_retention_rates": "81%",
    "graduation_rate": "55%"
  },
  {
    "name": "Adelphi University",
    "rank": "#153Tie",
    "tuition_fees": "$34,034",
    "total_enrollment": "7,610",
    "acceptance_rate": "72.4%",
    "average_retention_rates": "82%",
    "graduation_rate": "64%"
  },
  {
    "name": "Southern Illinois University—​Carbondale",
    "rank": "#153Tie",
    "tuition_fees": "in-state: $13,137, out-of-state: $26,390",
    "total_enrollment": "17,989",
    "acceptance_rate": "81.7%",
    "average_retention_rates": "64%",
    "graduation_rate": "44%"
  },
  {
    "name": "St. John's University",
    "rank": "#153Tie",
    "tuition_fees": "$38,680",
    "total_enrollment": "20,448",
    "acceptance_rate": "62.5%",
    "average_retention_rates": "79%",
    "graduation_rate": "59%"
  },
  {
    "name": "University of Maryland—​Baltimore County",
    "rank": "#156Tie",
    "tuition_fees": "in-state: $11,006, out-of-state: $23,770",
    "total_enrollment": "13,979",
    "acceptance_rate": "59.6%",
    "average_retention_rates": "87%",
    "graduation_rate": "61%"
  },
  {
    "name": "University of Massachusetts—​Lowell",
    "rank": "#156Tie",
    "tuition_fees": "in-state: $12,447, out-of-state: $27,400",
    "total_enrollment": "17,184",
    "acceptance_rate": "62%",
    "average_retention_rates": "82%",
    "graduation_rate": "54%"
  },
  {
    "name": "University of South Florida",
    "rank": "#156Tie",
    "tuition_fees": "in-state: $6,410, out-of-state: $17,325",
    "total_enrollment": "41,938",
    "acceptance_rate": "47.5%",
    "average_retention_rates": "89%",
    "graduation_rate": "67%"
  },
  {
    "name": "Virginia Commonwealth University",
    "rank": "#156Tie",
    "tuition_fees": "in-state: $12,772, out-of-state: $30,838",
    "total_enrollment": "31,163",
    "acceptance_rate": "68.9%",
    "average_retention_rates": "86%",
    "graduation_rate": "59%"
  },
  {
    "name": "University of La Verne",
    "rank": "#160",
    "tuition_fees": "$38,560",
    "total_enrollment": "4,876",
    "acceptance_rate": "46.6%",
    "average_retention_rates": "86%",
    "graduation_rate": "59%"
  },
  {
    "name": "Biola University",
    "rank": "#161Tie",
    "tuition_fees": "$34,498",
    "total_enrollment": "6,358",
    "acceptance_rate": "75.4%",
    "average_retention_rates": "86%",
    "graduation_rate": "71%"
  },
  {
    "name": "Florida Institute of Technology",
    "rank": "#161Tie",
    "tuition_fees": "$39,290",
    "total_enrollment": "6,393",
    "acceptance_rate": "61.6%",
    "average_retention_rates": "79%",
    "graduation_rate": "55%"
  },
  {
    "name": "Immaculata University",
    "rank": "#161Tie",
    "tuition_fees": "$33,280",
    "total_enrollment": "3,299",
    "acceptance_rate": "75.9%",
    "average_retention_rates": "81%",
    "graduation_rate": "61%"
  },
  {
    "name": "Maryville University of St. Louis",
    "rank": "#161Tie",
    "tuition_fees": "$26,958",
    "total_enrollment": "5,931",
    "acceptance_rate": "72%",
    "average_retention_rates": "86%",
    "graduation_rate": "66%"
  },
  {
    "name": "Mississippi State University",
    "rank": "#161Tie",
    "tuition_fees": "in-state: $7,502, out-of-state: $20,142",
    "total_enrollment": "20,138",
    "acceptance_rate": "71%",
    "average_retention_rates": "81%",
    "graduation_rate": "60%\n                      \n                  \n                  \n                      \n                        6"
  },
  {
    "name": "University of Hawaii—​Manoa",
    "rank": "#161Tie",
    "tuition_fees": "in-state: $11,404, out-of-state: $31,516",
    "total_enrollment": "19,507",
    "acceptance_rate": "77.9%",
    "average_retention_rates": "79%",
    "graduation_rate": "56%"
  },
  {
    "name": "University of Rhode Island",
    "rank": "#161Tie",
    "tuition_fees": "in-state: $12,506, out-of-state: $28,072",
    "total_enrollment": "16,571",
    "acceptance_rate": "75.7%",
    "average_retention_rates": "82%",
    "graduation_rate": "59%"
  },
  {
    "name": "Ball State University",
    "rank": "#168Tie",
    "tuition_fees": "in-state: $9,624, out-of-state: $25,348",
    "total_enrollment": "20,655",
    "acceptance_rate": "59.9%",
    "average_retention_rates": "79%",
    "graduation_rate": "60%"
  },
  {
    "name": "Texas Tech University",
    "rank": "#168Tie",
    "tuition_fees": "in-state: $9,567, out-of-state: $21,267",
    "total_enrollment": "35,158",
    "acceptance_rate": "66.1%",
    "average_retention_rates": "82%",
    "graduation_rate": "59%"
  },
  {
    "name": "University of Central Florida",
    "rank": "#168Tie",
    "tuition_fees": "in-state: $6,368, out-of-state: $22,467",
    "total_enrollment": "60,810",
    "acceptance_rate": "49.6%",
    "average_retention_rates": "88%",
    "graduation_rate": "70%"
  },
  {
    "name": "University of Idaho",
    "rank": "#168Tie",
    "tuition_fees": "in-state: $7,020, out-of-state: $21,024",
    "total_enrollment": "11,702",
    "acceptance_rate": "67.5%",
    "average_retention_rates": "78%",
    "graduation_rate": "58%"
  },
  {
    "name": "University of Louisville",
    "rank": "#168Tie",
    "tuition_fees": "in-state: $10,738, out-of-state: $24,626",
    "total_enrollment": "21,562",
    "acceptance_rate": "71.9%",
    "average_retention_rates": "79%",
    "graduation_rate": "54%"
  },
  {
    "name": "University of Maine",
    "rank": "#168Tie",
    "tuition_fees": "in-state: $10,610, out-of-state: $28,880",
    "total_enrollment": "11,286",
    "acceptance_rate": "82.6%",
    "average_retention_rates": "78%",
    "graduation_rate": "60%"
  },
  {
    "name": "University of Wyoming",
    "rank": "#168Tie",
    "tuition_fees": "in-state: $4,892, out-of-state: $15,632",
    "total_enrollment": "12,820",
    "acceptance_rate": "97.7%",
    "average_retention_rates": "75%",
    "graduation_rate": "54%"
  },
  {
    "name": "Andrews University",
    "rank": "#175Tie",
    "tuition_fees": "$27,000",
    "total_enrollment": "3,418",
    "acceptance_rate": "37.3%",
    "average_retention_rates": "79%",
    "graduation_rate": "60%"
  },
  {
    "name": "Azusa Pacific University",
    "rank": "#175Tie",
    "tuition_fees": "$34,754",
    "total_enrollment": "9,972",
    "acceptance_rate": "81.8%",
    "average_retention_rates": "85%",
    "graduation_rate": "67%"
  },
  {
    "name": "Edgewood College",
    "rank": "#175Tie",
    "tuition_fees": "$26,550",
    "total_enrollment": "2,980",
    "acceptance_rate": "76.2%",
    "average_retention_rates": "81%",
    "graduation_rate": "62%"
  },
  {
    "name": "Kent State University",
    "rank": "#175Tie",
    "tuition_fees": "in-state: $10,012, out-of-state: $18,212",
    "total_enrollment": "29,477",
    "acceptance_rate": "84.4%",
    "average_retention_rates": "78%",
    "graduation_rate": "55%"
  },
  {
    "name": "West Virginia University",
    "rank": "#175Tie",
    "tuition_fees": "in-state: $6,960, out-of-state: $20,424",
    "total_enrollment": "29,175",
    "acceptance_rate": "85.8%",
    "average_retention_rates": "77%",
    "graduation_rate": "57%"
  },
  {
    "name": "Pace University",
    "rank": "#180Tie",
    "tuition_fees": "$41,325",
    "total_enrollment": "12,857",
    "acceptance_rate": "85%",
    "average_retention_rates": "77%",
    "graduation_rate": "55%"
  },
  {
    "name": "St. Mary's University of Minnesota",
    "rank": "#180Tie",
    "tuition_fees": "$31,335",
    "total_enrollment": "5,825",
    "acceptance_rate": "74.2%",
    "average_retention_rates": "78%",
    "graduation_rate": "65%"
  },
  {
    "name": "University of New Mexico",
    "rank": "#180Tie",
    "tuition_fees": "in-state: $6,846, out-of-state: $20,664",
    "total_enrollment": "27,887",
    "acceptance_rate": "46.1%",
    "average_retention_rates": "77%",
    "graduation_rate": "48%"
  },
  {
    "name": "University of North Dakota",
    "rank": "#180Tie",
    "tuition_fees": "in-state: $7,741, out-of-state: $18,409",
    "total_enrollment": "14,906",
    "acceptance_rate": "86%",
    "average_retention_rates": "77%",
    "graduation_rate": "54%"
  },
  {
    "name": "University of South Dakota",
    "rank": "#180Tie",
    "tuition_fees": "in-state: $8,455, out-of-state: $10,426",
    "total_enrollment": "10,061",
    "acceptance_rate": "88.8%",
    "average_retention_rates": "76%",
    "graduation_rate": "57%"
  },
  {
    "name": "Bowling Green State University",
    "rank": "#185Tie",
    "tuition_fees": "in-state: $10,726, out-of-state: $18,034",
    "total_enrollment": "16,554",
    "acceptance_rate": "53.4%",
    "average_retention_rates": "72%",
    "graduation_rate": "54%"
  },
  {
    "name": "North Dakota State University",
    "rank": "#185Tie",
    "tuition_fees": "in-state: $7,820, out-of-state: $11,169",
    "total_enrollment": "14,747",
    "acceptance_rate": "82.7%",
    "average_retention_rates": "79%",
    "graduation_rate": "56%"
  },
  {
    "name": "South Dakota State University",
    "rank": "#187Tie",
    "tuition_fees": "in-state: $8,349, out-of-state: $10,520",
    "total_enrollment": "12,557",
    "acceptance_rate": "92%",
    "average_retention_rates": "75%",
    "graduation_rate": "58%\n                      \n                  \n                  \n                      \n                        8"
  },
  {
    "name": "University of Alabama—​Huntsville",
    "rank": "#187Tie",
    "tuition_fees": "in-state: $9,128, out-of-state: $20,622",
    "total_enrollment": "7,348",
    "acceptance_rate": "82%",
    "average_retention_rates": "79%",
    "graduation_rate": "46%"
  },
  {
    "name": "University of Houston",
    "rank": "#187Tie",
    "tuition_fees": "in-state: $10,518, out-of-state: $24,378",
    "total_enrollment": "40,914",
    "acceptance_rate": "63%",
    "average_retention_rates": "84%",
    "graduation_rate": "48%"
  },
  {
    "name": "University of Nevada—​Reno",
    "rank": "#187Tie",
    "tuition_fees": "in-state: $6,902, out-of-state: $20,812",
    "total_enrollment": "19,934",
    "acceptance_rate": "83.9%",
    "average_retention_rates": "80%",
    "graduation_rate": "55%"
  },
  {
    "name": "University of North Carolina—​Greensboro",
    "rank": "#187Tie",
    "tuition_fees": "in-state: $6,733, out-of-state: $21,595",
    "total_enrollment": "18,647",
    "acceptance_rate": "60%",
    "average_retention_rates": "76%",
    "graduation_rate": "56%"
  },
  {
    "name": "Western Michigan University",
    "rank": "#187Tie",
    "tuition_fees": "in-state: $10,685, out-of-state: $24,917",
    "total_enrollment": "23,914",
    "acceptance_rate": "84.1%",
    "average_retention_rates": "75%",
    "graduation_rate": "54%"
  },
  {
    "name": "Widener University",
    "rank": "#187Tie",
    "tuition_fees": "$41,224",
    "total_enrollment": "5,985",
    "acceptance_rate": "65%",
    "average_retention_rates": "74%",
    "graduation_rate": "53%"
  },
  {
    "name": "Central Michigan University",
    "rank": "#194Tie",
    "tuition_fees": "in-state: $11,850, out-of-state: $23,670",
    "total_enrollment": "27,069",
    "acceptance_rate": "69.3%",
    "average_retention_rates": "76%",
    "graduation_rate": "56%"
  },
  {
    "name": "East Carolina University",
    "rank": "#194Tie",
    "tuition_fees": "in-state: $6,550, out-of-state: $22,124",
    "total_enrollment": "27,511",
    "acceptance_rate": "77.3%",
    "average_retention_rates": "80%",
    "graduation_rate": "59%"
  },
  {
    "name": "South Carolina State University",
    "rank": "#194Tie",
    "tuition_fees": "in-state: $10,088, out-of-state: $19,856",
    "total_enrollment": "3,331",
    "acceptance_rate": "84.5%",
    "average_retention_rates": "63%",
    "graduation_rate": "38%"
  },
  {
    "name": "University of Missouri—​Kansas City",
    "rank": "#194Tie",
    "tuition_fees": "in-state: $9,559, out-of-state: $22,714",
    "total_enrollment": "16,160",
    "acceptance_rate": "63.6%",
    "average_retention_rates": "73%",
    "graduation_rate": "51%"
  },
  {
    "name": "University of North Carolina—​Charlotte",
    "rank": "#194Tie",
    "tuition_fees": "in-state: $6,384, out-of-state: $19,555",
    "total_enrollment": "27,238",
    "acceptance_rate": "64.1%",
    "average_retention_rates": "79%",
    "graduation_rate": "55%"
  },
  {
    "name": "Ashland University",
    "rank": "#199Tie",
    "tuition_fees": "$20,242",
    "total_enrollment": "5,737",
    "acceptance_rate": "71.9%",
    "average_retention_rates": "74%",
    "graduation_rate": "57%"
  },
  {
    "name": "Indiana University-​Purdue University—​Indianapolis",
    "rank": "#199Tie",
    "tuition_fees": "in-state: $9,056, out-of-state: $29,774",
    "total_enrollment": "30,690",
    "acceptance_rate": "70.5%",
    "average_retention_rates": "72%",
    "graduation_rate": "44%"
  },
  {
    "name": "Louisiana Tech University",
    "rank": "#199Tie",
    "tuition_fees": "in-state: $8,853, out-of-state: $25,851",
    "total_enrollment": "11,225",
    "acceptance_rate": "65%",
    "average_retention_rates": "78%",
    "graduation_rate": "54%"
  },
  {
    "name": "New Mexico State University",
    "rank": "#199Tie",
    "tuition_fees": "in-state: $6,729, out-of-state: $21,234",
    "total_enrollment": "15,829",
    "acceptance_rate": "69.6%",
    "average_retention_rates": "73%",
    "graduation_rate": "46%"
  },
  {
    "name": "University of Colorado—​Denver",
    "rank": "#199Tie",
    "tuition_fees": "in-state: $10,404, out-of-state: $29,334",
    "total_enrollment": "22,791",
    "acceptance_rate": "73%",
    "average_retention_rates": "74%",
    "graduation_rate": "40%"
  },
  {
    "name": "Barry University",
    "rank": "RNP",
    "tuition_fees": "$28,160",
    "total_enrollment": "8,518",
    "acceptance_rate": "46.1%",
    "average_retention_rates": "58%\n                      \n                  \n                  \n                      \n                        8",
    "graduation_rate": "36%"
  },
  {
    "name": "Benedictine University",
    "rank": "RNP",
    "tuition_fees": "$26,950",
    "total_enrollment": "6,307",
    "acceptance_rate": "77.2%",
    "average_retention_rates": "75%",
    "graduation_rate": "51%"
  },
  {
    "name": "Bowie State University",
    "rank": "RNP",
    "tuition_fees": "in-state: $7,657, out-of-state: $18,140",
    "total_enrollment": "5,694",
    "acceptance_rate": "53.6%",
    "average_retention_rates": "73%",
    "graduation_rate": "37%\n                      \n                  \n                  \n                      \n                        6"
  },
  {
    "name": "Cardinal Stritch University",
    "rank": "RNP",
    "tuition_fees": "$27,540",
    "total_enrollment": "3,811",
    "acceptance_rate": "83%",
    "average_retention_rates": "69%\n                      \n                  \n                  \n                      \n                        8",
    "graduation_rate": "49%"
  },
  {
    "name": "Clark Atlanta University",
    "rank": "RNP",
    "tuition_fees": "$20,886",
    "total_enrollment": "3,485",
    "acceptance_rate": "84.7%",
    "average_retention_rates": "63%",
    "graduation_rate": "41%"
  },
  {
    "name": "Cleveland State University",
    "rank": "RNP",
    "tuition_fees": "in-state: $9,848, out-of-state: $13,156",
    "total_enrollment": "17,301",
    "acceptance_rate": "67.1%",
    "average_retention_rates": "67%",
    "graduation_rate": "39%"
  },
  {
    "name": "East Tennessee State University",
    "rank": "RNP",
    "tuition_fees": "in-state: $7,985, out-of-state: $17,917",
    "total_enrollment": "14,434",
    "acceptance_rate": "91.7%",
    "average_retention_rates": "68%",
    "graduation_rate": "43%"
  },
  {
    "name": "Florida A&M University",
    "rank": "RNP",
    "tuition_fees": "in-state: $5,784, out-of-state: $17,726",
    "total_enrollment": "10,241",
    "acceptance_rate": "49%",
    "average_retention_rates": "81%",
    "graduation_rate": "40%"
  },
  {
    "name": "Florida Atlantic University",
    "rank": "RNP",
    "tuition_fees": "in-state: $6,039, out-of-state: $21,595",
    "total_enrollment": "30,364",
    "acceptance_rate": "66%",
    "average_retention_rates": "77%",
    "graduation_rate": "46%"
  },
  {
    "name": "Florida International University",
    "rank": "RNP",
    "tuition_fees": "in-state: $6,496, out-of-state: $18,895",
    "total_enrollment": "49,703",
    "acceptance_rate": "47.6%",
    "average_retention_rates": "83%",
    "graduation_rate": "54%"
  },
  {
    "name": "Georgia Southern University",
    "rank": "RNP",
    "tuition_fees": "in-state: $7,318, out-of-state: $20,536",
    "total_enrollment": "20,517",
    "acceptance_rate": "63.1%",
    "average_retention_rates": "80%",
    "graduation_rate": "51%"
  },
  {
    "name": "Georgia State University",
    "rank": "RNP",
    "tuition_fees": "in-state: $10,686, out-of-state: $28,896",
    "total_enrollment": "32,542",
    "acceptance_rate": "57.1%",
    "average_retention_rates": "83%",
    "graduation_rate": "54%"
  },
  {
    "name": "Indiana State University",
    "rank": "RNP",
    "tuition_fees": "in-state: $8,416, out-of-state: $18,346",
    "total_enrollment": "13,183",
    "acceptance_rate": "82.5%",
    "average_retention_rates": "62%",
    "graduation_rate": "40%"
  },
  {
    "name": "Indiana University of Pennsylvania",
    "rank": "RNP",
    "tuition_fees": "in-state: $9,470, out-of-state: $19,700",
    "total_enrollment": "14,369",
    "acceptance_rate": "94.7%",
    "average_retention_rates": "75%",
    "graduation_rate": "53%"
  },
  {
    "name": "Jackson State University",
    "rank": "RNP",
    "tuition_fees": "in-state: $6,602, out-of-state: $16,174",
    "total_enrollment": "9,508",
    "acceptance_rate": "26.1%",
    "average_retention_rates": "78%\n                      \n                  \n                  \n                      \n                        8",
    "graduation_rate": "43%"
  },
  {
    "name": "Lamar University",
    "rank": "RNP",
    "tuition_fees": "in-state: $9,721, out-of-state: $21,421",
    "total_enrollment": "14,895",
    "acceptance_rate": "78.4%",
    "average_retention_rates": "59%",
    "graduation_rate": "33%"
  },
  {
    "name": "Lynn University",
    "rank": "RNP",
    "tuition_fees": "$35,200",
    "total_enrollment": "2,613",
    "acceptance_rate": "74.9%",
    "average_retention_rates": "67%",
    "graduation_rate": "39%"
  },
  {
    "name": "Middle Tennessee State University",
    "rank": "RNP",
    "tuition_fees": "in-state: $7,370, out-of-state: $24,434",
    "total_enrollment": "22,729",
    "acceptance_rate": "72.1%",
    "average_retention_rates": "70%",
    "graduation_rate": "46%"
  },
  {
    "name": "Montana State University",
    "rank": "RNP",
    "tuition_fees": "in-state: $6,968, out-of-state: $21,961",
    "total_enrollment": "15,421",
    "acceptance_rate": "83.9%",
    "average_retention_rates": "75%",
    "graduation_rate": "50%"
  },
  {
    "name": "Morgan State University",
    "rank": "RNP",
    "tuition_fees": "in-state: $7,378, out-of-state: $16,862",
    "total_enrollment": "7,698",
    "acceptance_rate": "65.3%",
    "average_retention_rates": "74%",
    "graduation_rate": "33%"
  },
  {
    "name": "National Louis University",
    "rank": "RNP",
    "tuition_fees": "$12,867",
    "total_enrollment": "N/A",
    "acceptance_rate": "N/A",
    "average_retention_rates": "72%\n                      \n                  \n                  \n                      \n                        8",
    "graduation_rate": "38%\n                      \n                  \n                  \n                      \n                        6"
  },
  {
    "name": "North Carolina A&T State University",
    "rank": "RNP",
    "tuition_fees": "in-state: $5,872, out-of-state: $18,632",
    "total_enrollment": "10,725",
    "acceptance_rate": "57.6%",
    "average_retention_rates": "77%",
    "graduation_rate": "47%"
  },
  {
    "name": "Northern Arizona University",
    "rank": "RNP",
    "tuition_fees": "in-state: $10,358, out-of-state: $23,348",
    "total_enrollment": "27,715",
    "acceptance_rate": "90.5%",
    "average_retention_rates": "74%",
    "graduation_rate": "52%"
  },
  {
    "name": "Northern Illinois University",
    "rank": "RNP",
    "tuition_fees": "in-state: $14,426, out-of-state: $23,891",
    "total_enrollment": "20,611",
    "acceptance_rate": "50.9%",
    "average_retention_rates": "70%",
    "graduation_rate": "50%"
  },
  {
    "name": "Nova Southeastern University",
    "rank": "RNP",
    "tuition_fees": "$27,660",
    "total_enrollment": "24,148",
    "acceptance_rate": "48.8%",
    "average_retention_rates": "72%",
    "graduation_rate": "46%"
  },
  {
    "name": "Oakland University",
    "rank": "RNP",
    "tuition_fees": "in-state: $11,460, out-of-state: $24,735",
    "total_enrollment": "20,519",
    "acceptance_rate": "67.3%",
    "average_retention_rates": "75%",
    "graduation_rate": "46%"
  },
  {
    "name": "Old Dominion University",
    "rank": "RNP",
    "tuition_fees": "N/A",
    "total_enrollment": "24,932",
    "acceptance_rate": "81.9%",
    "average_retention_rates": "80%",
    "graduation_rate": "52%"
  },
  {
    "name": "Our Lady of the Lake University",
    "rank": "RNP",
    "tuition_fees": "$26,148",
    "total_enrollment": "3,173",
    "acceptance_rate": "49.5%",
    "average_retention_rates": "63%",
    "graduation_rate": "38%"
  },
  {
    "name": "Portland State University",
    "rank": "RNP",
    "tuition_fees": "in-state: $7,794, out-of-state: $23,319",
    "total_enrollment": "27,696",
    "acceptance_rate": "84.8%",
    "average_retention_rates": "73%\n                      \n                  \n                  \n                      \n                        8",
    "graduation_rate": "39%"
  },
  {
    "name": "Regent University",
    "rank": "RNP",
    "tuition_fees": "$16,638",
    "total_enrollment": "6,154",
    "acceptance_rate": "80.3%",
    "average_retention_rates": "77%",
    "graduation_rate": "53%"
  },
  {
    "name": "Sam Houston State University",
    "rank": "RNP",
    "tuition_fees": "in-state: $9,337, out-of-state: $21,037",
    "total_enrollment": "19,573",
    "acceptance_rate": "73.7%",
    "average_retention_rates": "76%",
    "graduation_rate": "53%"
  },
  {
    "name": "Spalding University",
    "rank": "RNP",
    "tuition_fees": "$22,950",
    "total_enrollment": "N/A",
    "acceptance_rate": "81.1%\n                      \n                  \n                  \n                      \n                        4",
    "average_retention_rates": "73%\n                      \n                  \n                  \n                      \n                        8",
    "graduation_rate": "41%\n                      \n                  \n                  \n                      \n                        6"
  },
  {
    "name": "Tennessee State University",
    "rank": "RNP",
    "tuition_fees": "in-state: $7,128, out-of-state: $21,287",
    "total_enrollment": "9,027",
    "acceptance_rate": "53%",
    "average_retention_rates": "62%\n                      \n                  \n                  \n                      \n                        8",
    "graduation_rate": "33%\n                      \n                  \n                  \n                      \n                        8"
  },
  {
    "name": "Texas A&M University—​Commerce",
    "rank": "RNP",
    "tuition_fees": "in-state: $7,432, out-of-state: $19,132",
    "total_enrollment": "11,490",
    "acceptance_rate": "47.8%",
    "average_retention_rates": "69%",
    "graduation_rate": "52%"
  },
  {
    "name": "Texas A&M University—​Corpus Christi",
    "rank": "RNP",
    "tuition_fees": "in-state: $8,620, out-of-state: $20,208",
    "total_enrollment": "11,234",
    "acceptance_rate": "60.6%",
    "average_retention_rates": "58%",
    "graduation_rate": "38%"
  },
  {
    "name": "Texas A&M University—​Kingsville",
    "rank": "RNP",
    "tuition_fees": "in-state: $7,434, out-of-state: $18,294",
    "total_enrollment": "8,728",
    "acceptance_rate": "83.5%",
    "average_retention_rates": "62%",
    "graduation_rate": "36%"
  },
  {
    "name": "Texas Southern University",
    "rank": "RNP",
    "tuition_fees": "in-state: $8,126, out-of-state: $18,986",
    "total_enrollment": "9,233",
    "acceptance_rate": "51.3%",
    "average_retention_rates": "58%",
    "graduation_rate": "16%"
  },
  {
    "name": "Texas Woman's University",
    "rank": "RNP",
    "tuition_fees": "in-state: $8,522, out-of-state: $20,222",
    "total_enrollment": "15,070",
    "acceptance_rate": "85.3%",
    "average_retention_rates": "69%",
    "graduation_rate": "47%"
  },
  {
    "name": "Trevecca Nazarene University",
    "rank": "RNP",
    "tuition_fees": "$23,748",
    "total_enrollment": "2,606",
    "acceptance_rate": "73.1%",
    "average_retention_rates": "74%",
    "graduation_rate": "51%"
  },
  {
    "name": "Trinity International University",
    "rank": "RNP",
    "tuition_fees": "$28,700",
    "total_enrollment": "2,490",
    "acceptance_rate": "97%",
    "average_retention_rates": "73%\n                      \n                  \n                  \n                      \n                        8",
    "graduation_rate": "46%"
  },
  {
    "name": "University of Akron",
    "rank": "RNP",
    "tuition_fees": "in-state: $10,509, out-of-state: $19,040",
    "total_enrollment": "23,976",
    "acceptance_rate": "95.7%",
    "average_retention_rates": "70%",
    "graduation_rate": "41%"
  },
  {
    "name": "University of Alaska—​Fairbanks",
    "rank": "RNP",
    "tuition_fees": "in-state: $7,370, out-of-state: $21,350",
    "total_enrollment": "8,700",
    "acceptance_rate": "73.9%",
    "average_retention_rates": "76%",
    "graduation_rate": "43%"
  },
  {
    "name": "University of Arkansas—​Little Rock",
    "rank": "RNP",
    "tuition_fees": "in-state: $8,165, out-of-state: $19,235",
    "total_enrollment": "11,645",
    "acceptance_rate": "62%",
    "average_retention_rates": "78%\n                      \n                  \n                  \n                      \n                        8",
    "graduation_rate": "24%"
  },
  {
    "name": "University of Louisiana—​Lafayette",
    "rank": "RNP",
    "tuition_fees": "in-state: $6,948, out-of-state: $19,348",
    "total_enrollment": "17,195",
    "acceptance_rate": "55.8%",
    "average_retention_rates": "75%",
    "graduation_rate": "48%"
  },
  {
    "name": "University of Massachusetts—​Boston",
    "rank": "RNP",
    "tuition_fees": "in-state: $11,966, out-of-state: $28,390",
    "total_enrollment": "16,756",
    "acceptance_rate": "70.8%",
    "average_retention_rates": "78%",
    "graduation_rate": "42%"
  },
  {
    "name": "University of Memphis",
    "rank": "RNP",
    "tuition_fees": "in-state: $8,903, out-of-state: $13,275",
    "total_enrollment": "21,059",
    "acceptance_rate": "48.7%",
    "average_retention_rates": "77%",
    "graduation_rate": "42%"
  },
  {
    "name": "University of Missouri—​St. Louis",
    "rank": "RNP",
    "tuition_fees": "in-state: $10,065, out-of-state: $25,512",
    "total_enrollment": "17,085",
    "acceptance_rate": "75.7%",
    "average_retention_rates": "78%",
    "graduation_rate": "42%"
  },
  {
    "name": "University of Montana",
    "rank": "RNP",
    "tuition_fees": "in-state: $6,389, out-of-state: $23,845",
    "total_enrollment": "11,707",
    "acceptance_rate": "94.2%",
    "average_retention_rates": "73%",
    "graduation_rate": "50%"
  },
  {
    "name": "University of Nebraska—​Omaha",
    "rank": "RNP",
    "tuition_fees": "in-state: $6,898, out-of-state: $18,610",
    "total_enrollment": "15,227",
    "acceptance_rate": "78.5%",
    "average_retention_rates": "74%",
    "graduation_rate": "45%"
  },
  {
    "name": "University of Nevada—​Las Vegas",
    "rank": "RNP",
    "tuition_fees": "in-state: $6,943, out-of-state: $20,852",
    "total_enrollment": "28,525",
    "acceptance_rate": "86.9%",
    "average_retention_rates": "77%",
    "graduation_rate": "39%"
  },
  {
    "name": "University of New Orleans",
    "rank": "RNP",
    "tuition_fees": "in-state: $7,482, out-of-state: $21,092",
    "total_enrollment": "9,234",
    "acceptance_rate": "43.7%",
    "average_retention_rates": "67%",
    "graduation_rate": "34%"
  },
  {
    "name": "University of Northern Colorado",
    "rank": "RNP",
    "tuition_fees": "in-state: $7,733, out-of-state: $19,277",
    "total_enrollment": "11,784",
    "acceptance_rate": "70.9%",
    "average_retention_rates": "68%\n                      \n                  \n                  \n                      \n                        8",
    "graduation_rate": "46%"
  },
  {
    "name": "University of North Texas",
    "rank": "RNP",
    "tuition_fees": "in-state: $10,091, out-of-state: $21,791",
    "total_enrollment": "36,164",
    "acceptance_rate": "62.1%",
    "average_retention_rates": "77%",
    "graduation_rate": "50%"
  },
  {
    "name": "University of South Alabama",
    "rank": "RNP",
    "tuition_fees": "in-state: $9,026, out-of-state: $17,628",
    "total_enrollment": "15,805",
    "acceptance_rate": "83.5%",
    "average_retention_rates": "68%",
    "graduation_rate": "37%"
  },
  {
    "name": "University of Southern Mississippi",
    "rank": "RNP",
    "tuition_fees": "in-state: $7,224, out-of-state: $16,094",
    "total_enrollment": "14,792",
    "acceptance_rate": "66.7%",
    "average_retention_rates": "73%",
    "graduation_rate": "48%"
  },
  {
    "name": "University of Texas—​Arlington",
    "rank": "RNP",
    "tuition_fees": "in-state: $8,878, out-of-state: $18,102",
    "total_enrollment": "39,740",
    "acceptance_rate": "61.4%",
    "average_retention_rates": "74%",
    "graduation_rate": "42%"
  },
  {
    "name": "University of Texas—​El Paso",
    "rank": "RNP",
    "tuition_fees": "in-state: $7,058, out-of-state: $18,759",
    "total_enrollment": "23,079",
    "acceptance_rate": "99.9%",
    "average_retention_rates": "74%\n                      \n                  \n                  \n                      \n                        8",
    "graduation_rate": "38%\n                      \n                  \n                  \n                      \n                        6"
  },
  {
    "name": "University of Texas—​San Antonio",
    "rank": "RNP",
    "tuition_fees": "in-state: $8,737, out-of-state: $20,890",
    "total_enrollment": "28,628",
    "acceptance_rate": "75.9%",
    "average_retention_rates": "63%",
    "graduation_rate": "31%"
  },
  {
    "name": "University of Toledo",
    "rank": "RNP",
    "tuition_fees": "in-state: $9,568, out-of-state: $18,906",
    "total_enrollment": "20,626",
    "acceptance_rate": "94.7%",
    "average_retention_rates": "66%",
    "graduation_rate": "44%"
  },
  {
    "name": "University of West Florida",
    "rank": "RNP",
    "tuition_fees": "in-state: $8,956, out-of-state: $21,838",
    "total_enrollment": "12,602",
    "acceptance_rate": "41.7%",
    "average_retention_rates": "72%",
    "graduation_rate": "51%"
  },
  {
    "name": "University of Wisconsin—​Milwaukee",
    "rank": "RNP",
    "tuition_fees": "in-state: $9,882, out-of-state: $19,610",
    "total_enrollment": "28,013",
    "acceptance_rate": "74.7%",
    "average_retention_rates": "70%",
    "graduation_rate": "44%"
  },
  {
    "name": "Utah State University",
    "rank": "RNP",
    "tuition_fees": "in-state: $6,663, out-of-state: $19,133",
    "total_enrollment": "27,662",
    "acceptance_rate": "97.8%",
    "average_retention_rates": "70%",
    "graduation_rate": "49%"
  },
  {
    "name": "Wayne State University",
    "rank": "RNP",
    "tuition_fees": "in-state: $12,350, out-of-state: $26,592",
    "total_enrollment": "27,578",
    "acceptance_rate": "77.3%",
    "average_retention_rates": "76%",
    "graduation_rate": "34%"
  },
  {
    "name": "Wichita State University",
    "rank": "RNP",
    "tuition_fees": "in-state: $7,267, out-of-state: $16,697",
    "total_enrollment": "15,003",
    "acceptance_rate": "95.5%",
    "average_retention_rates": "72%",
    "graduation_rate": "44%"
  },
  {
    "name": "Wright State University",
    "rank": "RNP",
    "tuition_fees": "in-state: $8,730, out-of-state: $17,098",
    "total_enrollment": "16,842",
    "acceptance_rate": "96.8%",
    "average_retention_rates": "62%",
    "graduation_rate": "39%"
  },
  {
    "name": "Alliant International University",
    "rank": "Unranked",
    "tuition_fees": "$19,930",
    "total_enrollment": "4,648",
    "acceptance_rate": "N/A",
    "average_retention_rates": "N/A",
    "graduation_rate": "29%\n                      \n                  \n                  \n                      \n                        6"
  },
  {
    "name": "Argosy University",
    "rank": "Unranked",
    "tuition_fees": "$13,663",
    "total_enrollment": "N/A",
    "acceptance_rate": "N/A",
    "average_retention_rates": "N/A",
    "graduation_rate": "N/A"
  },
  {
    "name": "California Institute of Integral Studies",
    "rank": "Unranked",
    "tuition_fees": "N/A",
    "total_enrollment": "N/A",
    "acceptance_rate": "N/A",
    "average_retention_rates": "N/A",
    "graduation_rate": "N/A"
  },
  {
    "name": "Capella University",
    "rank": "Unranked",
    "tuition_fees": "$12,816",
    "total_enrollment": "N/A",
    "acceptance_rate": "N/A",
    "average_retention_rates": "N/A",
    "graduation_rate": "N/A"
  },
  {
    "name": "Colorado Technical University",
    "rank": "Unranked",
    "tuition_fees": "$11,327",
    "total_enrollment": "N/A",
    "acceptance_rate": "N/A",
    "average_retention_rates": "N/A",
    "graduation_rate": "18%\n                      \n                  \n                  \n                      \n                        6"
  },
  {
    "name": "Idaho State University",
    "rank": "Unranked",
    "tuition_fees": "in-state: $6,566, out-of-state: $19,326",
    "total_enrollment": "N/A",
    "acceptance_rate": "N/A",
    "average_retention_rates": "N/A",
    "graduation_rate": "29%\n                      \n                  \n                  \n                      \n                        6"
  },
  {
    "name": "Northcentral University",
    "rank": "Unranked",
    "tuition_fees": "N/A",
    "total_enrollment": "N/A",
    "acceptance_rate": "N/A",
    "average_retention_rates": "N/A",
    "graduation_rate": "N/A"
  },
  {
    "name": "Trident University International",
    "rank": "Unranked",
    "tuition_fees": "$8,400",
    "total_enrollment": "N/A",
    "acceptance_rate": "N/A",
    "average_retention_rates": "N/A",
    "graduation_rate": "47%\n                      \n                  \n                  \n                      \n                        6"
  },
  {
    "name": "Union Institute and University",
    "rank": "Unranked",
    "tuition_fees": "$11,904",
    "total_enrollment": "1,627",
    "acceptance_rate": "N/A",
    "average_retention_rates": "62%\n                      \n                  \n                  \n                      \n                        8",
    "graduation_rate": "25%"
  },
  {
    "name": "University of Phoenix",
    "rank": "Unranked",
    "tuition_fees": "N/A",
    "total_enrollment": "N/A",
    "acceptance_rate": "N/A",
    "average_retention_rates": "N/A",
    "graduation_rate": "6%\n                      \n                  \n                  \n                      \n                        6"
  },
  {
    "name": "Walden University",
    "rank": "Unranked",
    "tuition_fees": "$14,300",
    "total_enrollment": "N/A",
    "acceptance_rate": "98%\n                      \n                  \n                  \n                      \n                        4",
    "average_retention_rates": "N/A",
    "graduation_rate": "N/A"
  },
  {
    "name": "Wilmington University",
    "rank": "Unranked",
    "tuition_fees": "$10,430",
    "total_enrollment": "14,852",
    "acceptance_rate": "99.9%",
    "average_retention_rates": "62%\n                      \n                  \n                  \n                      \n                        8",
    "graduation_rate": "28%"
  }
]